../Core/Src/cc1101.c:12:6:cc1101Init	16	static
../Core/Src/cc1101.c:81:6:writeRegister	32	static
../Core/Src/cc1101.c:104:9:readRegister	32	static
../Core/Src/cc1101.c:130:6:burstWriteRegister	48	static
../Core/Src/cc1101.c:160:6:burstReadRegister	48	static
../Core/Src/cc1101.c:189:5:changeOutputPower	24	static
../Core/Src/cc1101.c:213:6:setStatusVariables	16	static
../Core/Src/cc1101.c:224:6:commandStrobe	32	static
../Core/Src/cc1101.c:250:6:sendBytes	32	static
../Core/Src/cc1101.c:305:9:getNumOfRXBytes	16	static
../Core/Src/cc1101.c:315:5:getMessage	56	static
../Core/Src/cc1101.c:386:5:pllIsInLock	16	static
../Core/Src/cc1101.c:398:9:calibrate	24	static
